1 10 20
100 200 125
201 210 89
900 1000 174
141384 857751 525
376028 519753 470
116776 843902 525
198870 892084 525
975069 258501 525
103005 3944 351
409267 602937 470
627079 704316 442
800700 133483 509
337977 40681 443
854853 759988 525
2602 932636 525
911425 544949 525
89291 788617 509
424026 86102 449
227245 691755 509
198888 249643 443
894260 180861 525
850153 910210 476
809865 987659 525
881299 188348 525
738608 950738 525
941220 434363 525
59574 133887 354
102184 463734 449
356576 244559 441
141630 365744 443
446962 706130 509
163785 162010 339
410450 154264 449
479437 90456 449
465240 595621 470
576763 810338 509
869585 331192 525
901191 55797 525
476375 475614 307
430996 375247 449
649857 588601 509
574492 309946 470
728705 803321 468
62420 722398 509
147518 579026 470
376762 813864 509
357245 20030 443
499852 688054 509
472682 333270 449
3982 136925 354
733281 205521 509
447145 994850 525
42049 858097 525
312367 670460 509
194922 659522 509
375110 144860 443
420875 997110 525
513332 259426 470
605674 124800 470
456424 187990 449
31523 327049 443
656306 664263 429
827833 214187 509
494082 721838 509
747270 246707 509
600509 977875 525
231715 972759 525
333521 539580 470
823031 408407 509
249370 706438 509
336778 922060 525
441466 863747 525
368136 506419 449
93918 649788 509
269030 164668 443
490188 166541 449
610949 312162 470
605298 286845 470
828836 917058 525
678275 993049 525
146763 10079 375
13941 595369 470
325452 811699 509
707323 370543 509
868916 385247 525
53764 553715 470
671132 969626 525
238799 476254 449
426857 650033 509
344134 727181 509
321747 476895 449
56712 303629 443
647847 306733 509
556820 780625 509
40257 855911 525
794365 752386 468
550196 897075 525
225219 655050 509
645174 549860 509
269488 741974 509
95422 346468 443
589049 757298 509
101344 954495 525
410662 951717 525
122957 455714 449
203216 412124 449
897417 668215 525
447261 419519 418
558761 330242 470
657443 15036 509
119397 20110 354
263687 586268 470
922411 308374 525
845635 448471 525
641255 601154 509
569055 899120 525
181476 626210 470
164968 297813 443
274013 537757 470
290955 221114 443
781205 959047 525
527426 280251 470
736856 359832 509
982457 744288 525
794152 993521 525
572601 528300 452
42708 187974 383
691973 96932 509
856082 977287 507
946348 993861 458
273903 218973 443
329982 49130 443
48369 987542 525
659037 753778 504
645793 65572 509
333806 216381 443
926435 351001 525
78087 330526 443
940557 212693 525
18374 42100 324
762455 510427 509
395882 368597 436
373076 522390 470
837957 56605 525
509398 369005 449
762151 739452 424
400303 664855 509
830004 512035 509
59404 317776 443
380216 346770 423
558894 603029 434
918564 401153 525
54273 593373 470
825986 725829 468
68813 233118 443
307934 881513 525
323049 55546 443
617533 479789 470
723649 418703 509
88470 206053 383
54376 361958 443
973896 288665 525
297136 581790 470
610804 165951 470
588924 643104 509
327979 132975 443
600191 719117 509
735461 275204 509
735335 163143 509
518088 290161 470
402230 602497 470
320421 356382 441
54318 991911 525
386693 58631 443
562894 874707 525
791612 323979 509
423717 264954 449
189528 290002 443
507181 701852 509
704896 665423 504
8573 125853 354
384018 218990 443
579671 333278 470
732702 24854 509
869791 564170 525
267363 761898 509
662121 532281 509
245375 6910 443
610404 922573 525
225709 633883 509
148055 547044 470
799217 237059 509
940456 587396 525
519826 801997 509
994288 900134 507
499835 589336 470
611366 142732 470
76709 974279 525
578191 483505 470
419508 25767 449
898595 701467 525
866173 981283 507
832347 991217 525
40728 69505 340
771825 621002 509
346341 310091 441
106028 692688 509
569861 782234 509
487374 894111 525
427615 44204 449
548168 943798 525
998036 900287 507
546372 804790 509
816204 174926 509
521016 161035 470
286671 411771 449
884555 458124 525
283067 62256 443
336101 316137 384
426758 719740 509
556890 373434 470
158737 30629 383
894797 700152 525
665701 346028 509
15795 491473 449
465642 313953 449
875727 750077 525
716212 875346 525
322644 46658 443
882458 316905 525
444348 104104 449
85623 176997 383
516631 499159 470
275301 970470 525
48713 306898 443
592586 474064 470
989396 303699 525
329412 729761 509
440065 831952 509
356370 513008 470
680897 917653 525
991929 925215 507
846670 897229 445
977842 648137 525
950803 766867 525
984864 555527 525
361343 733735 509
10474 366105 443
572866 493936 470
182320 714208 509
94313 968291 525
240458 867019 525
293685 893388 525
