629841 287171 509
366876 42433 443
934190 688166 525
919694 264704 525
887943 40518 525
136643 947620 525
996670 155172 525
168104 504949 449
58552 763310 509
913612 243306 525
914551 48239 525
816523 357824 509
196460 386945 443
953702 952498 414
93782 81192 333
623027 574961 447
39838 691668 509
641557 220443 509
191890 46234 383
465981 500084 426
992235 58680 525
431506 384743 449
563262 900934 525
323911 395338 441
990523 259079 525
217844 697003 509
646503 176516 509
125543 829554 509
955880 928452 507
363642 617322 470
724885 178136 509
861710 690714 525
873722 440749 525
953933 837073 525
59774 18774 340
340932 114277 443
745440 221963 509
334911 82307 443
738984 584220 509
611936 403922 470
36292 166205 383
233913 492802 449
119450 721468 509
857748 515890 525
955211 519875 525
747425 730760 424
396591 912919 525
786564 158989 509
386636 923499 525
308155 269866 407
451984 88720 449
20978 901209 525
660145 91218 509
196024 750788 509
357247 304334 441
112010 251450 443
670885 871210 525
639674 898374 525
888588 326860 525
172770 695395 509
219960 770836 509
652992 877676 525
88770 614420 470
33395 98086 351
993164 987613 352
439909 147529 449
226494 162834 386
741374 798407 468
200853 481707 449
712614 927652 525
215455 788266 509
547594 513138 452
989265 62933 525
348134 717009 509
368719 245713 441
725368 158074 509
810875 807466 406
948244 19334 525
433027 918783 525
368066 372097 392
435256 471550 444
536867 111548 470
830181 840537 525
951497 46566 525
757202 180701 509
751134 679851 504
950457 902897 507
842881 391949 525
290663 737150 509
247138 993049 525
988064 306496 525
90016 712114 509
152595 823379 509
245226 719772 509
872113 242476 525
38930 980780 525
204396 414287 449
216371 887022 525
157606 680759 509
857990 316432 525
334174 331729 353
476836 564200 470
113453 83931 354
224595 33724 386
1975 165487 383
443971 664839 509
402669 871988 525
24974 562148 470
333706 325910 353
342820 32633 443
667648 43565 509
68194 738590 509
54491 29597 340
469278 415505 444
615847 305321 470
775464 546490 509
199606 245960 443
908496 815459 525
221930 390624 443
438800 622394 470
13927 450817 449
55672 224426 386
516490 520742 439
555756 450752 470
278925 226567 443
425027 767734 509
201070 962232 525
68883 299466 443
968656 283082 525
710638 389356 509
176054 727538 509
795366 784486 437
492685 401334 449
851662 609961 525
186340 998438 525
319207 936669 525
102702 907362 525
227833 953697 525
191791 942092 525
192033 30621 383
418783 250323 449
595436 439631 470
93612 857029 525
929422 465797 525
920221 208455 525
459908 298798 449
480754 473323 413
754184 757496 362
979789 640467 525
608582 687684 509
96180 708525 509
832048 266961 509
453496 541864 470
992135 999260 440
698765 144288 509
363524 247932 441
550116 821690 509
575639 861034 525
871986 736944 525
550675 913871 525
332199 558430 470
80803 53562 351
584470 229245 470
351370 861482 525
284847 930606 525
709287 102482 509
630487 691890 442
924271 292245 525
296048 633702 509
706426 131064 509
868219 269860 525
484022 636445 509
708323 948551 525
982342 530664 525
615751 353299 470
535102 50347 470
774691 477892 509
271983 304786 389
232743 183423 443
923628 28347 525
752595 472756 509
737772 381072 509
477678 830629 509
252194 268107 407
234644 361415 441
565267 308907 470
691822 861968 525
852980 258948 525
311637 687123 509
819722 645550 504
284990 965623 525
43958 688821 509
555115 496877 470
982357 653537 525
210170 54450 383
896515 220800 525
628746 42088 509
849632 406191 525
750920 525416 509
658306 374182 509
548486 908340 525
940484 35361 525
118943 847801 525
200018 332495 443
369722 551072 470
186691 413140 449
21669 105460 351
615232 359517 470
884070 862176 432
97295 165095 383
733094 46116 509
936372 849151 476
481671 620961 470
595653 491523 470
489803 20959 449
5612 443094 449
293201 368345 441
974857 351445 525
301445 334054 384
882244 626776 525
888602 811799 525
446619 661306 509
753585 620188 509
87906 243487 443
534407 916099 525
471514 137494 449
158976 273431 443
318014 826701 509
249936 576671 470
845306 571221 525
112790 604339 470
985859 179311 525
613857 272559 470
508029 175294 449
3047 303157 443
365167 268269 441
794120 347227 509
632650 398745 509
776927 487951 509
820212 590599 509
742201 313143 509
193482 324357 443
63607 789499 509
127320 755742 509
661723 767116 504
670624 638239 442
503530 128965 449
709895 649591 504
551753 691459 509
283969 286976 376
814293 687702 504
568860 323085 470
829925 527729 509
393674 762295 509
933799 567895 525
909664 228818 525
523324 499533 470
580616 636369 509
980164 121399 525
57331 849079 525
222173 298695 443
5108 686476 509
333927 454111 449
545862 614651 452
727132 983726 525
531765 473378 470
638733 673304 442
287995 713404 509
277135 978051 525
342266 673334 509
181259 118758 383
247958 907074 525
788718 442608 509
551648 925412 525
162525 291680 443
949531 106045 525
374164 164552 443
915491 231372 525
245194 983 443
403115 665942 509
442507 950232 525
855530 818810 525
747482 50019 509
461948 822850 509
933344 95470 525
261356 668732 509
772831 406843 509
397491 576589 470
966102 910465 507
118366 977612 525
839551 23509 525
280703 780560 509
551660 163680 470
318607 690702 509
826852 211457 509
270409 493441 449
669412 404296 509
229996 633556 509
2661 167411 383
