615457 874098 525
43130 100730 351
776728 154729 509
126232 35139 354
814113 565034 509
718433 708432 411
868925 992163 507
133326 157110 383
50830 154145 375
632577 104311 509
650216 592379 509
442840 390132 449
218345 897717 525
680461 84471 509
178032 778372 509
601909 546810 434
271554 363933 441
357177 342668 441
138582 369986 443
241854 595052 470
849155 267359 525
363464 797004 509
449468 741472 509
385796 126443 443
305798 994522 525
817764 236536 509
579609 216159 470
88933 624249 470
225719 155358 386
655750 382331 509
394464 33691 443
771879 355010 509
334513 170983 443
546397 692597 509
63348 80597 351
458075 886827 525
677319 311264 509
473933 419901 444
244627 719301 509
609077 133168 470
121686 466235 449
407549 402427 405
60397 209393 383
208966 507152 449
300728 816859 509
726330 498825 509
29612 722051 509
30921 242183 443
63570 807132 509
422770 45885 449
214718 358147 443
971480 905999 507
882723 743280 525
938674 878879 476
236140 244163 368
486806 835256 509
184148 90800 383
292670 132683 443
730492 511360 509
727105 768029 468
444225 609067 470
63002 583506 470
170224 35960 383
952530 950246 414
543039 782502 509
761289 374134 509
142364 175801 383
891809 731820 525
900481 762065 525
803049 646731 504
486454 372032 449
801574 989503 525
116341 9968 354
342665 93097 443
391275 179887 443
218989 370631 443
212837 619546 470
522280 500911 470
123092 694426 509
735583 407627 509
727539 593284 509
796943 953332 525
812996 490896 509
202430 806322 509
715382 496266 509
288090 897472 525
320852 944216 525
24994 537426 470
748086 381604 509
672776 508250 509
304503 394400 441
973552 386079 525
916633 449761 525
945248 293276 525
324533 531911 470
134672 626854 509
362808 823315 509
942028 793110 525
345001 529610 470
84389 196445 383
820008 807358 450
156169 603665 470
366571 605876 470
811997 757717 468
716267 267818 509
802693 154310 509
643601 621208 509
446669 177372 449
937174 121633 525
440953 167605 449
955499 416422 525
562475 430922 470
10277 321617 443
908487 113422 525
111710 538336 470
219842 229642 368
353741 139482 443
294404 537131 470
403801 829050 509
81410 675704 509
860681 677496 525
113497 319862 443
212194 847524 525
751416 343234 509
38517 302829 443
961239 726209 525
793429 420050 509
10638 506509 449
735785 237757 509
368975 38523 443
273550 99061 443
526400 285227 470
344864 671677 509
857633 398506 525
629971 97220 509
212255 860117 525
521638 155977 470
119952 241042 443
476780 575223 470
131825 328231 443
793386 466993 509
153984 939781 525
87685 765047 509
167215 688911 509
215380 463788 449
565630 454650 470
986667 705918 525
266800 596859 470
696986 649998 442
813397 396267 509
76200 610643 470
768301 816398 468
634893 685009 442
724541 341421 509
453975 112934 449
435382 75089 449
659780 618996 509
713538 396448 509
622430 704771 509
570001 410758 470
740928 778601 468
110669 872974 525
891358 321400 525
972723 598097 525
636464 10408 509
582263 898444 525
508133 907271 525
693598 639714 442
678750 961715 525
604543 19038 470
653441 320977 509
31655 102614 351
143446 140828 375
229439 220764 368
733508 77715 509
658556 447760 509
42597 893745 525
487133 277092 449
824417 849125 525
892458 369965 525
61101 138315 354
361629 18108 443
293583 376010 441
633267 945228 525
450372 224307 449
138884 406043 443
535791 711017 509
975247 842564 507
166016 301993 443
408141 71765 443
659349 319583 509
302929 322307 384
100228 958203 525
783172 975537 525
349089 119255 443
553408 382660 470
608586 400372 470
144506 229562 386
724066 239015 509
375938 626327 470
191743 549651 470
76574 464056 449
29692 57476 340
912398 693994 525
422322 136238 449
480978 979004 525
138281 53063 354
339896 665627 509
212442 698729 509
133683 323159 443
472440 789355 509
669208 819548 504
785646 428698 509
351749 935970 525
143843 335879 443
118337 494657 449
395168 248583 441
51967 869633 525
171353 498787 449
525623 391011 470
485300 782329 509
870404 73230 525
850414 581855 525
415327 263964 449
260880 314064 407
581146 842657 525
570188 780863 509
524426 270848 470
7941 922981 525
593151 102283 470
859804 836247 525
941957 973657 458
505451 333301 449
921212 540656 525
356122 293000 441
185915 154115 383
311747 297095 371
678736 599566 509
126772 860259 525
975590 872677 507
430905 763383 509
420770 362866 449
661067 396344 509
962284 8463 525
372485 79158 443
891053 970238 507
947625 929117 507
501984 871880 525
533175 515756 439
644550 120832 509
393514 426937 449
452426 139834 449
374492 57924 443
12099 908444 525
860160 622916 525
399690 72547 443
362113 480269 449
373198 371973 317
119025 906517 525
951890 113571 525
852551 691867 525
670572 432315 509
471748 675665 509
211270 954239 525
446572 872785 525
559117 833366 509
459275 140532 449
11042 887016 525
21036 431347 449
469383 707716 509
569908 12335 470
850247 798922 525
948044 669270 525
565212 436370 470
762239 948311 525
502155 250116 449
437390 232437 449
903320 333037 525
464219 753258 509
903464 9656 525
748187 764869 424
557824 160046 470
624727 126846 470
440596 610479 470
105558 680872 509
777120 38209 509
553654 468861 470
476263 193489 449
202447 824539 509
897844 726969 525
278160 500078 449
784884 591521 509
606367 506778 470
261928 311287 407
361770 740877 509
856256 544136 525
686098 291178 509
360659 490681 449
421963 641680 509
643731 635085 416
